homework 3
…
The code below reads in the CalFresh data. Weve filtered out
February 2019, since benefits were distributed differently in this
month, leading to outliers for most counties. Extract features of the
calfresh time series using the features
function in the feasts library.

library(tsibble)
calfresh <- read.csv("https://uwmadison.box.com/shared/static/rduej9hsc4w3mdethxnx9ccv752f22yr.csv") %>%
  filter(date != "2019 Feb") %>%
  mutate(date = yearmonth(date)) %>%
  as_tsibble(key = county, index = date)

calfresh 

## # A tsibble: 4,872 x 5 [1M]
## # Key:       county [58]
##    county      date medi_cal unemployment calfresh
##    <chr>      <mth> <chr>           <dbl>    <int>
##  1 Alameda 2014 Jan 340549           6.5    64394
##  2 Alameda 2014 Feb 349927           6.4    63674
##  3 Alameda 2014 Mar 365622           6.4    64297
##  4 Alameda 2014 Apr 373571           5.5    64208
##  5 Alameda 2014 May 378218           5.6    64582
##  6 Alameda 2014 Jun 381831           5.9    64635
##  7 Alameda 2014 Jul 385839           6.3    64020
##  8 Alameda 2014 Aug 389814           6.1    63835
##  9 Alameda 2014 Sep 393082           5.5    63346
## 10 Alameda 2014 Oct 396515           5.4    63146
## #  4,862 more rows
…
